<svg width="285" height="637" viewBox="0 0 285 637" fill="none" xmlns="http://www.w3.org/2000/svg">
<path d="M8.56 35H11.8V23.64H16.28V21H4.08V23.64H8.56V35ZM27.6033 35H31.3833L25.2433 27.24L31.0433 21H27.4433L21.2433 27.54V21H18.0233V35H21.2433V31.46L23.1233 29.5L27.6033 35ZM43.092 35.24C47.092 35.24 49.032 33.24 49.032 30.9C49.032 25.76 40.892 27.54 40.892 24.96C40.892 24.08 41.632 23.36 43.552 23.36C44.792 23.36 46.132 23.72 47.432 24.46L48.432 22C47.132 21.18 45.332 20.76 43.572 20.76C39.592 20.76 37.672 22.74 37.672 25.12C37.672 30.32 45.812 28.52 45.812 31.14C45.812 32 45.032 32.64 43.112 32.64C41.432 32.64 39.672 32.04 38.492 31.18L37.392 33.62C38.632 34.58 40.872 35.24 43.092 35.24ZM58.7459 24.24V29.56C58.7459 31.54 57.7059 32.46 56.2659 32.46C54.8859 32.46 54.0859 31.66 54.0859 29.86V24.24H50.9659V30.32C50.9659 33.64 52.8659 35.16 55.5659 35.16C56.8859 35.16 58.0859 34.66 58.9059 33.72V35H61.8659V24.24H58.7459ZM67.7364 25.66V24.24H64.7564V35H67.8764V29.92C67.8764 27.86 69.0164 26.92 70.7364 26.92C70.9764 26.92 71.1764 26.94 71.4364 26.96V24.08C69.7764 24.08 68.4964 24.62 67.7364 25.66ZM81.3427 24.24L78.3027 31.54L75.2827 24.24H72.0627L76.7227 35.08L76.6827 35.18C76.2627 36.14 75.7827 36.52 74.9227 36.52C74.3027 36.52 73.6427 36.26 73.1627 35.84L72.0227 38.06C72.7227 38.68 73.9227 39.04 75.0227 39.04C76.9627 39.04 78.4427 38.26 79.4827 35.66L84.3427 24.24H81.3427ZM89.6042 24.08C87.8842 24.08 86.1442 24.54 84.9642 25.38L86.0842 27.56C86.8642 26.94 88.0442 26.56 89.1842 26.56C90.8642 26.56 91.6642 27.34 91.6642 28.68H89.1842C85.9042 28.68 84.5642 30 84.5642 31.9C84.5642 33.76 86.0642 35.16 88.5842 35.16C90.1642 35.16 91.2842 34.64 91.8642 33.66V35H94.7842V28.86C94.7842 25.6 92.8842 24.08 89.6042 24.08ZM89.3642 33.06C88.2642 33.06 87.6042 32.54 87.6042 31.76C87.6042 31.04 88.0642 30.5 89.5242 30.5H91.6642V31.6C91.3042 32.58 90.4042 33.06 89.3642 33.06ZM11.72 45H5.66V59H8.9V55.14H11.72C15.46 55.14 17.8 53.2 17.8 50.08C17.8 46.94 15.46 45 11.72 45ZM11.54 52.5H8.9V47.64H11.54C13.52 47.64 14.52 48.54 14.52 50.08C14.52 51.6 13.52 52.5 11.54 52.5ZM30.4136 53.66C30.4136 50.2 27.9736 48.08 24.8136 48.08C21.5336 48.08 19.0736 50.4 19.0736 53.62C19.0736 56.82 21.4936 59.16 25.2136 59.16C27.1536 59.16 28.6536 58.56 29.6536 57.42L27.9936 55.62C27.2536 56.32 26.4336 56.66 25.2936 56.66C23.6536 56.66 22.5136 55.84 22.2136 54.5H30.3536C30.3736 54.24 30.4136 53.9 30.4136 53.66ZM24.8336 50.44C26.2336 50.44 27.2536 51.32 27.4736 52.68H22.1736C22.3936 51.3 23.4136 50.44 24.8336 50.44ZM46.2708 48.08C44.6508 48.08 43.2508 48.74 42.3908 49.84C41.6308 48.66 40.3508 48.08 38.8508 48.08C37.4708 48.08 36.2708 48.56 35.4708 49.48V48.24H32.4908V59H35.6108V53.6C35.6108 51.68 36.5908 50.78 37.9708 50.78C39.2708 50.78 40.0108 51.58 40.0108 53.32V59H43.1308V53.6C43.1308 51.68 44.1108 50.78 45.5108 50.78C46.7708 50.78 47.5508 51.58 47.5508 53.32V59H50.6708V52.84C50.6708 49.56 48.8308 48.08 46.2708 48.08ZM57.8073 48.08C56.0873 48.08 54.3473 48.54 53.1673 49.38L54.2873 51.56C55.0673 50.94 56.2473 50.56 57.3873 50.56C59.0673 50.56 59.8673 51.34 59.8673 52.68H57.3873C54.1073 52.68 52.7673 54 52.7673 55.9C52.7673 57.76 54.2673 59.16 56.7873 59.16C58.3673 59.16 59.4873 58.64 60.0673 57.66V59H62.9873V52.86C62.9873 49.6 61.0873 48.08 57.8073 48.08ZM57.5673 57.06C56.4673 57.06 55.8073 56.54 55.8073 55.76C55.8073 55.04 56.2673 54.5 57.7273 54.5H59.8673V55.6C59.5073 56.58 58.6073 57.06 57.5673 57.06ZM72.3511 48.08C70.8911 48.08 69.6311 48.58 68.7911 49.5V48.24H65.8111V59H68.9311V53.68C68.9311 51.7 70.0111 50.78 71.5111 50.78C72.8911 50.78 73.6911 51.58 73.6911 53.32V59H76.8111V52.84C76.8111 49.56 74.8911 48.08 72.3511 48.08ZM87.5964 44.16V49.38C86.8164 48.5 85.6964 48.08 84.3764 48.08C81.3364 48.08 78.9964 50.24 78.9964 53.62C78.9964 57 81.3364 59.16 84.3764 59.16C85.8164 59.16 86.9564 58.7 87.7364 57.76V59H90.7164V44.16H87.5964ZM84.9164 56.6C83.3564 56.6 82.1564 55.48 82.1564 53.62C82.1564 51.76 83.3564 50.64 84.9164 50.64C86.4564 50.64 87.6564 51.76 87.6564 53.62C87.6564 55.48 86.4564 56.6 84.9164 56.6ZM101.324 48.24V53.56C101.324 55.54 100.284 56.46 98.8441 56.46C97.4641 56.46 96.6641 55.66 96.6641 53.86V48.24H93.5441V54.32C93.5441 57.64 95.4441 59.16 98.1441 59.16C99.4641 59.16 100.664 58.66 101.484 57.72V59H104.444V48.24H101.324Z" fill="black"/>
<line x1="154.5" y1="1.09278e-07" x2="154.5" y2="637" stroke="black" stroke-width="5"/>
<path d="M181.62 45.26L185.9 41.14C187.8 39.32 188.2 38.1 188.2 36.74C188.2 34.34 186.32 32.84 183.4 32.84C181.22 32.84 179.36 33.62 178.28 34.96L179.64 36.14C180.5 35.1 181.72 34.62 183.22 34.62C185.18 34.62 186.2 35.5 186.2 36.94C186.2 37.82 185.92 38.7 184.44 40.14L178.74 45.64V47H188.8V45.26H181.62ZM196.106 47.16C199.366 47.16 201.806 44.56 201.806 40C201.806 35.44 199.366 32.84 196.106 32.84C192.826 32.84 190.386 35.44 190.386 40C190.386 44.56 192.826 47.16 196.106 47.16ZM196.106 45.38C193.906 45.38 192.386 43.58 192.386 40C192.386 36.42 193.906 34.62 196.106 34.62C198.286 34.62 199.806 36.42 199.806 40C199.806 43.58 198.286 45.38 196.106 45.38ZM209.446 47.16C212.706 47.16 215.146 44.56 215.146 40C215.146 35.44 212.706 32.84 209.446 32.84C206.166 32.84 203.726 35.44 203.726 40C203.726 44.56 206.166 47.16 209.446 47.16ZM209.446 45.38C207.246 45.38 205.726 43.58 205.726 40C205.726 36.42 207.246 34.62 209.446 34.62C211.626 34.62 213.146 36.42 213.146 40C213.146 43.58 211.626 45.38 209.446 45.38ZM221.065 38.58H219.505L219.885 34.74H226.105V33H218.205L217.465 40.32H220.645C223.885 40.32 224.885 41.3 224.885 42.88C224.885 44.4 223.685 45.38 221.565 45.38C219.865 45.38 218.305 44.76 217.365 43.88L216.445 45.46C217.645 46.52 219.605 47.16 221.585 47.16C225.165 47.16 226.885 45.22 226.885 42.8C226.885 40.32 225.245 38.58 221.065 38.58ZM228.73 42.34H234.11V40.68H228.73V42.34ZM238.612 45.26L242.892 41.14C244.792 39.32 245.192 38.1 245.192 36.74C245.192 34.34 243.312 32.84 240.392 32.84C238.212 32.84 236.352 33.62 235.272 34.96L236.632 36.14C237.492 35.1 238.712 34.62 240.212 34.62C242.172 34.62 243.192 35.5 243.192 36.94C243.192 37.82 242.912 38.7 241.432 40.14L235.732 45.64V47H245.792V45.26H238.612ZM253.098 47.16C256.358 47.16 258.798 44.56 258.798 40C258.798 35.44 256.358 32.84 253.098 32.84C249.818 32.84 247.378 35.44 247.378 40C247.378 44.56 249.818 47.16 253.098 47.16ZM253.098 45.38C250.898 45.38 249.378 43.58 249.378 40C249.378 36.42 250.898 34.62 253.098 34.62C255.278 34.62 256.798 36.42 256.798 40C256.798 43.58 255.278 45.38 253.098 45.38ZM266.438 47.16C269.698 47.16 272.138 44.56 272.138 40C272.138 35.44 269.698 32.84 266.438 32.84C263.158 32.84 260.718 35.44 260.718 40C260.718 44.56 263.158 47.16 266.438 47.16ZM266.438 45.38C264.238 45.38 262.718 43.58 262.718 40C262.718 36.42 264.238 34.62 266.438 34.62C268.618 34.62 270.138 36.42 270.138 40C270.138 43.58 268.618 45.38 266.438 45.38ZM273.561 33V37.24H275.481V34.74H281.881L276.341 47H278.461L284.121 34.36V33H273.561Z" fill="#4A4A4A"/>
<path d="M10.26 169.24C14.26 169.24 16.2 167.24 16.2 164.9C16.2 159.76 8.06 161.54 8.06 158.96C8.06 158.08 8.8 157.36 10.72 157.36C11.96 157.36 13.3 157.72 14.6 158.46L15.6 156C14.3 155.18 12.5 154.76 10.74 154.76C6.76 154.76 4.84 156.74 4.84 159.12C4.84 164.32 12.98 162.52 12.98 165.14C12.98 166 12.2 166.64 10.28 166.64C8.6 166.64 6.84 166.04 5.66 165.18L4.56 167.62C5.8 168.58 8.04 169.24 10.26 169.24ZM18.4139 169H24.7739C29.3539 169 32.4939 166.24 32.4939 162C32.4939 157.76 29.3539 155 24.7739 155H18.4139V169ZM21.6539 166.34V157.66H24.6139C27.3939 157.66 29.2139 159.32 29.2139 162C29.2139 164.68 27.3939 166.34 24.6139 166.34H21.6539ZM39.5373 169.24C43.5373 169.24 45.4773 167.24 45.4773 164.9C45.4773 159.76 37.3373 161.54 37.3373 158.96C37.3373 158.08 38.0773 157.36 39.9973 157.36C41.2373 157.36 42.5773 157.72 43.8773 158.46L44.8773 156C43.5773 155.18 41.7773 154.76 40.0173 154.76C36.0373 154.76 34.1173 156.74 34.1173 159.12C34.1173 164.32 42.2573 162.52 42.2573 165.14C42.2573 166 41.4773 166.64 39.5573 166.64C37.8773 166.64 36.1173 166.04 34.9373 165.18L33.8373 167.62C35.0773 168.58 37.3173 169.24 39.5373 169.24ZM57.9553 169.24C61.9553 169.24 63.8953 167.24 63.8953 164.9C63.8953 159.76 55.7553 161.54 55.7553 158.96C55.7553 158.08 56.4953 157.36 58.4153 157.36C59.6553 157.36 60.9953 157.72 62.2953 158.46L63.2953 156C61.9953 155.18 60.1953 154.76 58.4353 154.76C54.4553 154.76 52.5353 156.74 52.5353 159.12C52.5353 164.32 60.6753 162.52 60.6753 165.14C60.6753 166 59.8953 166.64 57.9753 166.64C56.2953 166.64 54.5353 166.04 53.3553 165.18L52.2553 167.62C53.4953 168.58 55.7353 169.24 57.9553 169.24ZM73.6092 158.24V163.56C73.6092 165.54 72.5692 166.46 71.1292 166.46C69.7492 166.46 68.9492 165.66 68.9492 163.86V158.24H65.8292V164.32C65.8292 167.64 67.7292 169.16 70.4292 169.16C71.7492 169.16 72.9492 168.66 73.7692 167.72V169H76.7292V158.24H73.6092ZM82.5997 159.66V158.24H79.6197V169H82.7397V163.92C82.7397 161.86 83.8797 160.92 85.5997 160.92C85.8397 160.92 86.0397 160.94 86.2997 160.96V158.08C84.6397 158.08 83.3597 158.62 82.5997 159.66ZM96.2059 158.24L93.1659 165.54L90.1459 158.24H86.9259L91.5859 169.08L91.5459 169.18C91.1259 170.14 90.6459 170.52 89.7859 170.52C89.1659 170.52 88.5059 170.26 88.0259 169.84L86.8859 172.06C87.5859 172.68 88.7859 173.04 89.8859 173.04C91.8259 173.04 93.3059 172.26 94.3459 169.66L99.2059 158.24H96.2059ZM104.468 158.08C102.748 158.08 101.008 158.54 99.8275 159.38L100.948 161.56C101.728 160.94 102.908 160.56 104.048 160.56C105.728 160.56 106.528 161.34 106.528 162.68H104.048C100.768 162.68 99.4275 164 99.4275 165.9C99.4275 167.76 100.928 169.16 103.448 169.16C105.028 169.16 106.148 168.64 106.728 167.66V169H109.648V162.86C109.648 159.6 107.748 158.08 104.468 158.08ZM104.228 167.06C103.128 167.06 102.468 166.54 102.468 165.76C102.468 165.04 102.928 164.5 104.388 164.5H106.528V165.6C106.168 166.58 105.268 167.06 104.228 167.06ZM11.72 179H5.66V193H8.9V189.14H11.72C15.46 189.14 17.8 187.2 17.8 184.08C17.8 180.94 15.46 179 11.72 179ZM11.54 186.5H8.9V181.64H11.54C13.52 181.64 14.52 182.54 14.52 184.08C14.52 185.6 13.52 186.5 11.54 186.5ZM30.4136 187.66C30.4136 184.2 27.9736 182.08 24.8136 182.08C21.5336 182.08 19.0736 184.4 19.0736 187.62C19.0736 190.82 21.4936 193.16 25.2136 193.16C27.1536 193.16 28.6536 192.56 29.6536 191.42L27.9936 189.62C27.2536 190.32 26.4336 190.66 25.2936 190.66C23.6536 190.66 22.5136 189.84 22.2136 188.5H30.3536C30.3736 188.24 30.4136 187.9 30.4136 187.66ZM24.8336 184.44C26.2336 184.44 27.2536 185.32 27.4736 186.68H22.1736C22.3936 185.3 23.4136 184.44 24.8336 184.44ZM46.2708 182.08C44.6508 182.08 43.2508 182.74 42.3908 183.84C41.6308 182.66 40.3508 182.08 38.8508 182.08C37.4708 182.08 36.2708 182.56 35.4708 183.48V182.24H32.4908V193H35.6108V187.6C35.6108 185.68 36.5908 184.78 37.9708 184.78C39.2708 184.78 40.0108 185.58 40.0108 187.32V193H43.1308V187.6C43.1308 185.68 44.1108 184.78 45.5108 184.78C46.7708 184.78 47.5508 185.58 47.5508 187.32V193H50.6708V186.84C50.6708 183.56 48.8308 182.08 46.2708 182.08ZM57.8073 182.08C56.0873 182.08 54.3473 182.54 53.1673 183.38L54.2873 185.56C55.0673 184.94 56.2473 184.56 57.3873 184.56C59.0673 184.56 59.8673 185.34 59.8673 186.68H57.3873C54.1073 186.68 52.7673 188 52.7673 189.9C52.7673 191.76 54.2673 193.16 56.7873 193.16C58.3673 193.16 59.4873 192.64 60.0673 191.66V193H62.9873V186.86C62.9873 183.6 61.0873 182.08 57.8073 182.08ZM57.5673 191.06C56.4673 191.06 55.8073 190.54 55.8073 189.76C55.8073 189.04 56.2673 188.5 57.7273 188.5H59.8673V189.6C59.5073 190.58 58.6073 191.06 57.5673 191.06ZM72.3511 182.08C70.8911 182.08 69.6311 182.58 68.7911 183.5V182.24H65.8111V193H68.9311V187.68C68.9311 185.7 70.0111 184.78 71.5111 184.78C72.8911 184.78 73.6911 185.58 73.6911 187.32V193H76.8111V186.84C76.8111 183.56 74.8911 182.08 72.3511 182.08ZM87.5964 178.16V183.38C86.8164 182.5 85.6964 182.08 84.3764 182.08C81.3364 182.08 78.9964 184.24 78.9964 187.62C78.9964 191 81.3364 193.16 84.3764 193.16C85.8164 193.16 86.9564 192.7 87.7364 191.76V193H90.7164V178.16H87.5964ZM84.9164 190.6C83.3564 190.6 82.1564 189.48 82.1564 187.62C82.1564 185.76 83.3564 184.64 84.9164 184.64C86.4564 184.64 87.6564 185.76 87.6564 187.62C87.6564 189.48 86.4564 190.6 84.9164 190.6ZM101.324 182.24V187.56C101.324 189.54 100.284 190.46 98.8441 190.46C97.4641 190.46 96.6641 189.66 96.6641 187.86V182.24H93.5441V188.32C93.5441 191.64 95.4441 193.16 98.1441 193.16C99.4641 193.16 100.664 192.66 101.484 191.72V193H104.444V182.24H101.324Z" fill="black"/>
<path d="M181.62 174.26L185.9 170.14C187.8 168.32 188.2 167.1 188.2 165.74C188.2 163.34 186.32 161.84 183.4 161.84C181.22 161.84 179.36 162.62 178.28 163.96L179.64 165.14C180.5 164.1 181.72 163.62 183.22 163.62C185.18 163.62 186.2 164.5 186.2 165.94C186.2 166.82 185.92 167.7 184.44 169.14L178.74 174.64V176H188.8V174.26H181.62ZM196.106 176.16C199.366 176.16 201.806 173.56 201.806 169C201.806 164.44 199.366 161.84 196.106 161.84C192.826 161.84 190.386 164.44 190.386 169C190.386 173.56 192.826 176.16 196.106 176.16ZM196.106 174.38C193.906 174.38 192.386 172.58 192.386 169C192.386 165.42 193.906 163.62 196.106 163.62C198.286 163.62 199.806 165.42 199.806 169C199.806 172.58 198.286 174.38 196.106 174.38ZM209.446 176.16C212.706 176.16 215.146 173.56 215.146 169C215.146 164.44 212.706 161.84 209.446 161.84C206.166 161.84 203.726 164.44 203.726 169C203.726 173.56 206.166 176.16 209.446 176.16ZM209.446 174.38C207.246 174.38 205.726 172.58 205.726 169C205.726 165.42 207.246 163.62 209.446 163.62C211.626 163.62 213.146 165.42 213.146 169C213.146 172.58 211.626 174.38 209.446 174.38ZM216.569 162V166.24H218.489V163.74H224.889L219.349 176H221.469L227.129 163.36V162H216.569ZM228.066 171.34H233.446V169.68H228.066V171.34ZM237.948 174.26L242.228 170.14C244.128 168.32 244.528 167.1 244.528 165.74C244.528 163.34 242.648 161.84 239.728 161.84C237.548 161.84 235.688 162.62 234.608 163.96L235.968 165.14C236.828 164.1 238.048 163.62 239.548 163.62C241.508 163.62 242.528 164.5 242.528 165.94C242.528 166.82 242.248 167.7 240.768 169.14L235.068 174.64V176H245.128V174.26H237.948ZM252.434 176.16C255.694 176.16 258.134 173.56 258.134 169C258.134 164.44 255.694 161.84 252.434 161.84C249.154 161.84 246.714 164.44 246.714 169C246.714 173.56 249.154 176.16 252.434 176.16ZM252.434 174.38C250.234 174.38 248.714 172.58 248.714 169C248.714 165.42 250.234 163.62 252.434 163.62C254.614 163.62 256.134 165.42 256.134 169C256.134 172.58 254.614 174.38 252.434 174.38ZM259.195 162V163.74H262.355V176H264.335V162H259.195ZM272.758 167.88L276.418 163.36V162H267.178V163.74H273.918L270.398 168.06V169.46H271.518C273.918 169.46 274.978 170.42 274.978 171.9C274.978 173.42 273.778 174.38 271.678 174.38C269.958 174.38 268.398 173.76 267.458 172.88L266.538 174.46C267.718 175.52 269.678 176.16 271.678 176.16C275.238 176.16 276.978 174.24 276.978 171.88C276.978 169.72 275.558 168.14 272.758 167.88Z" fill="#4A4A4A"/>
<path d="M7.26 293.24C11.26 293.24 13.2 291.24 13.2 288.9C13.2 283.76 5.06 285.54 5.06 282.96C5.06 282.08 5.8 281.36 7.72 281.36C8.96 281.36 10.3 281.72 11.6 282.46L12.6 280C11.3 279.18 9.5 278.76 7.74 278.76C3.76 278.76 1.84 280.74 1.84 283.12C1.84 288.32 9.98 286.52 9.98 289.14C9.98 290 9.2 290.64 7.28 290.64C5.6 290.64 3.84 290.04 2.66 289.18L1.56 291.62C2.8 292.58 5.04 293.24 7.26 293.24ZM31.1939 293L31.1539 279H28.4939L23.3339 287.7L18.0939 279H15.4139V293H18.4539V284.78L22.5539 291.52H24.0139L28.1339 284.6L28.1539 293H31.1939ZM40.5755 279H34.5155V293H37.7555V289.14H40.5755C44.3155 289.14 46.6555 287.2 46.6555 284.08C46.6555 280.94 44.3155 279 40.5755 279ZM40.3955 286.5H37.7555V281.64H40.3955C42.3755 281.64 43.3755 282.54 43.3755 284.08C43.3755 285.6 42.3755 286.5 40.3955 286.5ZM59.428 293.24C63.428 293.24 65.368 291.24 65.368 288.9C65.368 283.76 57.228 285.54 57.228 282.96C57.228 282.08 57.968 281.36 59.888 281.36C61.128 281.36 62.468 281.72 63.768 282.46L64.768 280C63.468 279.18 61.668 278.76 59.908 278.76C55.928 278.76 54.008 280.74 54.008 283.12C54.008 288.32 62.148 286.52 62.148 289.14C62.148 290 61.368 290.64 59.448 290.64C57.768 290.64 56.008 290.04 54.828 289.18L53.728 291.62C54.968 292.58 57.208 293.24 59.428 293.24ZM73.4619 290.28C73.1219 290.54 72.6619 290.68 72.2019 290.68C71.3619 290.68 70.8619 290.18 70.8619 289.26V284.88H73.5419V282.48H70.8619V279.86H67.7419V282.48H66.0819V284.88H67.7419V289.3C67.7419 291.86 69.2219 293.16 71.7619 293.16C72.7219 293.16 73.6619 292.94 74.3019 292.48L73.4619 290.28ZM77.4486 289.28C76.3486 289.28 75.5086 290.04 75.5086 291.2C75.5086 292.02 75.9286 292.64 76.5886 292.9L75.7086 296.08H77.6886L78.8286 293.2C79.2886 292.1 79.3686 291.72 79.3686 291.2C79.3686 290.06 78.5686 289.28 77.4486 289.28ZM12.24 317H16.02L9.88 309.24L15.68 303H12.08L5.88 309.54V303H2.66V317H5.88V313.46L7.76 311.5L12.24 317ZM20.0294 307.66V306.24H17.0494V317H20.1694V311.92C20.1694 309.86 21.3094 308.92 23.0294 308.92C23.2694 308.92 23.4694 308.94 23.7294 308.96V306.08C22.0694 306.08 20.7894 306.62 20.0294 307.66ZM27.1445 304.74C28.3045 304.74 29.0845 303.98 29.0845 302.94C29.0845 301.98 28.3045 301.26 27.1445 301.26C25.9845 301.26 25.2045 302.02 25.2045 303C25.2045 303.98 25.9845 304.74 27.1445 304.74ZM25.5845 317H28.7045V306.24H25.5845V317ZM35.2202 317.16C38.4402 317.16 40.3002 315.74 40.3002 313.74C40.3002 309.5 33.8002 311.28 33.8002 309.44C33.8002 308.88 34.4002 308.44 35.8002 308.44C36.7802 308.44 37.8402 308.64 38.9002 309.24L39.9402 307.02C38.9202 306.42 37.2802 306.08 35.8002 306.08C32.6602 306.08 30.8202 307.52 30.8202 309.56C30.8202 313.86 37.3202 312.06 37.3202 313.82C37.3202 314.42 36.7802 314.8 35.3402 314.8C34.0202 314.8 32.5602 314.38 31.6002 313.76L30.5602 316C31.5602 316.66 33.4002 317.16 35.2202 317.16ZM48.3252 314.28C47.9852 314.54 47.5252 314.68 47.0652 314.68C46.2252 314.68 45.7252 314.18 45.7252 313.26V308.88H48.4052V306.48H45.7252V303.86H42.6052V306.48H40.9452V308.88H42.6052V313.3C42.6052 315.86 44.0852 317.16 46.6252 317.16C47.5852 317.16 48.5252 316.94 49.1652 316.48L48.3252 314.28ZM55.7045 317.16C59.1245 317.16 61.6045 314.86 61.6045 311.62C61.6045 308.38 59.1245 306.08 55.7045 306.08C52.2845 306.08 49.7845 308.38 49.7845 311.62C49.7845 314.86 52.2845 317.16 55.7045 317.16ZM55.7045 314.6C54.1445 314.6 52.9445 313.48 52.9445 311.62C52.9445 309.76 54.1445 308.64 55.7045 308.64C57.2645 308.64 58.4445 309.76 58.4445 311.62C58.4445 313.48 57.2645 314.6 55.7045 314.6ZM67.11 306.02C67.11 304.96 67.61 304.46 68.53 304.46C69.01 304.46 69.45 304.6 69.79 304.84L70.61 302.58C70.03 302.18 69.11 302 68.23 302C65.55 302 64.07 303.58 64.07 306V306.48H62.41V308.88H64.07V317H67.19V308.88H69.87V306.48H67.11V306.02ZM76.4077 317.16C79.8277 317.16 82.3077 314.86 82.3077 311.62C82.3077 308.38 79.8277 306.08 76.4077 306.08C72.9877 306.08 70.4877 308.38 70.4877 311.62C70.4877 314.86 72.9877 317.16 76.4077 317.16ZM76.4077 314.6C74.8477 314.6 73.6477 313.48 73.6477 311.62C73.6477 309.76 74.8477 308.64 76.4077 308.64C77.9677 308.64 79.1477 309.76 79.1477 311.62C79.1477 313.48 77.9677 314.6 76.4077 314.6ZM87.3731 307.66V306.24H84.3931V317H87.5131V311.92C87.5131 309.86 88.6531 308.92 90.3731 308.92C90.6131 308.92 90.8131 308.94 91.0731 308.96V306.08C89.4131 306.08 88.1331 306.62 87.3731 307.66ZM100.726 306.24V311.56C100.726 313.54 99.6864 314.46 98.2464 314.46C96.8664 314.46 96.0664 313.66 96.0664 311.86V306.24H92.9464V312.32C92.9464 315.64 94.8464 317.16 97.5464 317.16C98.8664 317.16 100.066 316.66 100.886 315.72V317H103.846V306.24H100.726ZM110.357 317.16C113.577 317.16 115.437 315.74 115.437 313.74C115.437 309.5 108.937 311.28 108.937 309.44C108.937 308.88 109.537 308.44 110.937 308.44C111.917 308.44 112.977 308.64 114.037 309.24L115.077 307.02C114.057 306.42 112.417 306.08 110.937 306.08C107.797 306.08 105.957 307.52 105.957 309.56C105.957 313.86 112.457 312.06 112.457 313.82C112.457 314.42 111.917 314.8 110.477 314.8C109.157 314.8 107.697 314.38 106.737 313.76L105.697 316C106.697 316.66 108.537 317.16 110.357 317.16ZM123.246 317H126.486V303H123.246V317Z" fill="black"/>
<path d="M180.62 303.26L184.9 299.14C186.8 297.32 187.2 296.1 187.2 294.74C187.2 292.34 185.32 290.84 182.4 290.84C180.22 290.84 178.36 291.62 177.28 292.96L178.64 294.14C179.5 293.1 180.72 292.62 182.22 292.62C184.18 292.62 185.2 293.5 185.2 294.94C185.2 295.82 184.92 296.7 183.44 298.14L177.74 303.64V305H187.8V303.26H180.62ZM195.106 305.16C198.366 305.16 200.806 302.56 200.806 298C200.806 293.44 198.366 290.84 195.106 290.84C191.826 290.84 189.386 293.44 189.386 298C189.386 302.56 191.826 305.16 195.106 305.16ZM195.106 303.38C192.906 303.38 191.386 301.58 191.386 298C191.386 294.42 192.906 292.62 195.106 292.62C197.286 292.62 198.806 294.42 198.806 298C198.806 301.58 197.286 303.38 195.106 303.38ZM201.867 291V292.74H205.027V305H207.007V291H201.867ZM215.429 296.88L219.089 292.36V291H209.849V292.74H216.589L213.069 297.06V298.46H214.189C216.589 298.46 217.649 299.42 217.649 300.9C217.649 302.42 216.449 303.38 214.349 303.38C212.629 303.38 211.069 302.76 210.129 301.88L209.209 303.46C210.389 304.52 212.349 305.16 214.349 305.16C217.909 305.16 219.649 303.24 219.649 300.88C219.649 298.72 218.229 297.14 215.429 296.88ZM221.695 300.34H227.075V298.68H221.695V300.34ZM231.577 303.26L235.857 299.14C237.757 297.32 238.157 296.1 238.157 294.74C238.157 292.34 236.277 290.84 233.357 290.84C231.177 290.84 229.317 291.62 228.237 292.96L229.597 294.14C230.457 293.1 231.677 292.62 233.177 292.62C235.137 292.62 236.157 293.5 236.157 294.94C236.157 295.82 235.877 296.7 234.397 298.14L228.697 303.64V305H238.757V303.26H231.577ZM246.063 305.16C249.323 305.16 251.763 302.56 251.763 298C251.763 293.44 249.323 290.84 246.063 290.84C242.783 290.84 240.343 293.44 240.343 298C240.343 302.56 242.783 305.16 246.063 305.16ZM246.063 303.38C243.863 303.38 242.343 301.58 242.343 298C242.343 294.42 243.863 292.62 246.063 292.62C248.243 292.62 249.763 294.42 249.763 298C249.763 301.58 248.243 303.38 246.063 303.38ZM252.824 291V292.74H255.984V305H257.964V291H252.824ZM267.066 296.5C265.326 296.5 263.846 297.14 263.046 298.34C263.026 298.16 263.026 298 263.026 297.84C263.026 294.34 264.846 292.56 267.686 292.56C268.686 292.56 269.646 292.74 270.366 293.22L271.126 291.66C270.226 291.1 268.966 290.84 267.646 290.84C263.726 290.84 261.026 293.4 261.026 298.18C261.026 302.64 263.146 305.16 266.906 305.16C269.686 305.16 271.866 303.44 271.866 300.74C271.866 298.16 269.846 296.5 267.066 296.5ZM266.826 303.54C264.666 303.54 263.506 302.28 263.506 300.84C263.506 299.3 264.826 298.12 266.726 298.12C268.686 298.12 269.926 299.18 269.926 300.82C269.926 302.48 268.646 303.54 266.826 303.54Z" fill="#4A4A4A"/>
<path d="M7.26 422.24C11.26 422.24 13.2 420.24 13.2 417.9C13.2 412.76 5.06 414.54 5.06 411.96C5.06 411.08 5.8 410.36 7.72 410.36C8.96 410.36 10.3 410.72 11.6 411.46L12.6 409C11.3 408.18 9.5 407.76 7.74 407.76C3.76 407.76 1.84 409.74 1.84 412.12C1.84 417.32 9.98 415.52 9.98 418.14C9.98 419 9.2 419.64 7.28 419.64C5.6 419.64 3.84 419.04 2.66 418.18L1.56 420.62C2.8 421.58 5.04 422.24 7.26 422.24ZM31.1939 422L31.1539 408H28.4939L23.3339 416.7L18.0939 408H15.4139V422H18.4539V413.78L22.5539 420.52H24.0139L28.1339 413.6L28.1539 422H31.1939ZM44.9755 422H48.3755L42.1155 408H38.9155L32.6755 422H35.9955L37.2355 419H43.7355L44.9755 422ZM38.2755 416.54L40.4955 411.18L42.7155 416.54H38.2755ZM59.408 422H63.188L57.048 414.24L62.848 408H59.248L53.048 414.54V408H49.828V422H53.048V418.46L54.928 416.5L59.408 422ZM68.7767 408V410.6H71.5767V422H74.8167V408H68.7767ZM8.72 432H2.66V446H5.9V442.14H8.72C12.46 442.14 14.8 440.2 14.8 437.08C14.8 433.94 12.46 432 8.72 432ZM8.54 439.5H5.9V434.64H8.54C10.52 434.64 11.52 435.54 11.52 437.08C11.52 438.6 10.52 439.5 8.54 439.5ZM20.3331 443.4V440.16H26.8331V437.64H20.3331V434.6H27.6931V432H17.1131V446H27.9531V443.4H20.3331ZM40.1711 432V440.5L33.2111 432H30.5311V446H33.7311V437.5L40.7111 446H43.3711V432H40.1711ZM57.1434 446H60.5434L54.2834 432H51.0834L44.8434 446H48.1634L49.4034 443H55.9034L57.1434 446ZM50.4434 440.54L52.6634 435.18L54.8834 440.54H50.4434ZM72.2759 438.72C73.4159 438.12 74.1359 437.04 74.1359 435.64C74.1359 433.46 72.3359 432 68.8359 432H61.9959V446H69.2359C72.9159 446 74.8359 444.6 74.8359 442.18C74.8359 440.42 73.8359 439.22 72.2759 438.72ZM68.4359 434.44C70.0159 434.44 70.8759 434.98 70.8759 436.08C70.8759 437.18 70.0159 437.74 68.4359 437.74H65.2159V434.44H68.4359ZM68.9959 443.56H65.2159V440.1H68.9959C70.6759 440.1 71.5759 440.66 71.5759 441.84C71.5759 443.04 70.6759 443.56 68.9959 443.56ZM83.5089 446.24C87.4889 446.24 89.8489 443.96 89.8489 439.84V432H86.6489V439.72C86.6489 442.38 85.5089 443.48 83.5289 443.48C81.5689 443.48 80.4089 442.38 80.4089 439.72V432H77.1689V439.84C77.1689 443.96 79.5289 446.24 83.5089 446.24ZM105.451 446L102.311 441.5C104.131 440.72 105.191 439.18 105.191 437.08C105.191 433.94 102.851 432 99.1106 432H93.0506V446H96.2906V442.1H99.1106H99.2706L101.971 446H105.451ZM101.911 437.08C101.911 438.6 100.911 439.52 98.9306 439.52H96.2906V434.64H98.9306C100.911 434.64 101.911 435.54 101.911 437.08ZM5.24 470.24C8.54 470.24 10.28 468.54 10.28 465.08V456H2.14V458.6H7.06V465.26C7.06 466.8 6.38 467.58 5.08 467.58C4.08 467.58 3.24 467.06 2.48 466.04L0.68 468.2C1.7 469.52 3.36 470.24 5.24 470.24ZM17.6003 459.08C15.8803 459.08 14.1403 459.54 12.9603 460.38L14.0803 462.56C14.8603 461.94 16.0403 461.56 17.1803 461.56C18.8603 461.56 19.6603 462.34 19.6603 463.68H17.1803C13.9003 463.68 12.5603 465 12.5603 466.9C12.5603 468.76 14.0603 470.16 16.5803 470.16C18.1603 470.16 19.2803 469.64 19.8603 468.66V470H22.7803V463.86C22.7803 460.6 20.8803 459.08 17.6003 459.08ZM17.3603 468.06C16.2603 468.06 15.6003 467.54 15.6003 466.76C15.6003 466.04 16.0603 465.5 17.5203 465.5H19.6603V466.6C19.3003 467.58 18.4003 468.06 17.3603 468.06ZM33.6241 470H37.4041L32.5241 463.8L37.0041 459.24H33.2841L28.7241 463.56V455.16H25.6041V470H28.7241V467.26L30.2241 465.78L33.6241 470ZM42.9519 459.08C41.2319 459.08 39.4919 459.54 38.3119 460.38L39.4319 462.56C40.2119 461.94 41.3919 461.56 42.5319 461.56C44.2119 461.56 45.0119 462.34 45.0119 463.68H42.5319C39.2519 463.68 37.9119 465 37.9119 466.9C37.9119 468.76 39.4119 470.16 41.9319 470.16C43.5119 470.16 44.6319 469.64 45.2119 468.66V470H48.1319V463.86C48.1319 460.6 46.2319 459.08 42.9519 459.08ZM42.7119 468.06C41.6119 468.06 40.9519 467.54 40.9519 466.76C40.9519 466.04 41.4119 465.5 42.8719 465.5H45.0119V466.6C44.6519 467.58 43.7519 468.06 42.7119 468.06ZM53.9356 460.66V459.24H50.9556V470H54.0756V464.92C54.0756 462.86 55.2156 461.92 56.9356 461.92C57.1756 461.92 57.3756 461.94 57.6356 461.96V459.08C55.9756 459.08 54.6956 459.62 53.9356 460.66ZM65.9619 467.28C65.6219 467.54 65.1619 467.68 64.7019 467.68C63.8619 467.68 63.3619 467.18 63.3619 466.26V461.88H66.0419V459.48H63.3619V456.86H60.2419V459.48H58.5819V461.88H60.2419V466.3C60.2419 468.86 61.7219 470.16 64.2619 470.16C65.2219 470.16 66.1619 469.94 66.8019 469.48L65.9619 467.28ZM72.8933 459.08C71.1733 459.08 69.4333 459.54 68.2533 460.38L69.3733 462.56C70.1533 461.94 71.3333 461.56 72.4733 461.56C74.1533 461.56 74.9533 462.34 74.9533 463.68H72.4733C69.1933 463.68 67.8533 465 67.8533 466.9C67.8533 468.76 69.3533 470.16 71.8733 470.16C73.4533 470.16 74.5733 469.64 75.1533 468.66V470H78.0733V463.86C78.0733 460.6 76.1733 459.08 72.8933 459.08ZM72.6533 468.06C71.5533 468.06 70.8933 467.54 70.8933 466.76C70.8933 466.04 71.3533 465.5 72.8133 465.5H74.9533V466.6C74.5933 467.58 73.6933 468.06 72.6533 468.06Z" fill="black"/>
<path d="M179.62 444.26L183.9 440.14C185.8 438.32 186.2 437.1 186.2 435.74C186.2 433.34 184.32 431.84 181.4 431.84C179.22 431.84 177.36 432.62 176.28 433.96L177.64 435.14C178.5 434.1 179.72 433.62 181.22 433.62C183.18 433.62 184.2 434.5 184.2 435.94C184.2 436.82 183.92 437.7 182.44 439.14L176.74 444.64V446H186.8V444.26H179.62ZM194.106 446.16C197.366 446.16 199.806 443.56 199.806 439C199.806 434.44 197.366 431.84 194.106 431.84C190.826 431.84 188.386 434.44 188.386 439C188.386 443.56 190.826 446.16 194.106 446.16ZM194.106 444.38C191.906 444.38 190.386 442.58 190.386 439C190.386 435.42 191.906 433.62 194.106 433.62C196.286 433.62 197.806 435.42 197.806 439C197.806 442.58 196.286 444.38 194.106 444.38ZM200.867 432V433.74H204.027V446H206.007V432H200.867ZM215.109 437.5C213.369 437.5 211.889 438.14 211.089 439.34C211.069 439.16 211.069 439 211.069 438.84C211.069 435.34 212.889 433.56 215.729 433.56C216.729 433.56 217.689 433.74 218.409 434.22L219.169 432.66C218.269 432.1 217.009 431.84 215.689 431.84C211.769 431.84 209.069 434.4 209.069 439.18C209.069 443.64 211.189 446.16 214.949 446.16C217.729 446.16 219.909 444.44 219.909 441.74C219.909 439.16 217.889 437.5 215.109 437.5ZM214.869 444.54C212.709 444.54 211.549 443.28 211.549 441.84C211.549 440.3 212.869 439.12 214.769 439.12C216.729 439.12 217.969 440.18 217.969 441.82C217.969 443.48 216.689 444.54 214.869 444.54ZM221.691 441.34H227.071V439.68H221.691V441.34ZM231.573 444.26L235.853 440.14C237.753 438.32 238.153 437.1 238.153 435.74C238.153 433.34 236.273 431.84 233.353 431.84C231.173 431.84 229.313 432.62 228.233 433.96L229.593 435.14C230.453 434.1 231.673 433.62 233.173 433.62C235.133 433.62 236.153 434.5 236.153 435.94C236.153 436.82 235.873 437.7 234.393 439.14L228.693 444.64V446H238.753V444.26H231.573ZM246.059 446.16C249.319 446.16 251.759 443.56 251.759 439C251.759 434.44 249.319 431.84 246.059 431.84C242.779 431.84 240.339 434.44 240.339 439C240.339 443.56 242.779 446.16 246.059 446.16ZM246.059 444.38C243.859 444.38 242.339 442.58 242.339 439C242.339 435.42 243.859 433.62 246.059 433.62C248.239 433.62 249.759 435.42 249.759 439C249.759 442.58 248.239 444.38 246.059 444.38ZM252.82 432V433.74H255.98V446H257.96V432H252.82ZM265.563 431.84C262.783 431.84 260.623 433.56 260.623 436.26C260.623 438.84 262.623 440.5 265.403 440.5C267.143 440.5 268.623 439.88 269.443 438.66V439.16C269.443 442.66 267.643 444.44 264.803 444.44C263.783 444.44 262.843 444.26 262.103 443.78L261.343 445.34C262.243 445.9 263.503 446.16 264.823 446.16C268.743 446.16 271.443 443.6 271.443 438.82C271.443 434.36 269.323 431.84 265.563 431.84ZM265.743 438.88C263.783 438.88 262.562 437.82 262.562 436.18C262.562 434.52 263.823 433.46 265.643 433.46C267.823 433.46 268.983 434.72 268.983 436.16C268.983 437.7 267.663 438.88 265.743 438.88Z" fill="#4A4A4A"/>
<path d="M8.88 568.24C12.86 568.24 15.22 565.96 15.22 561.84V554H12.02V561.72C12.02 564.38 10.88 565.48 8.9 565.48C6.94 565.48 5.78 564.38 5.78 561.72V554H2.54V561.84C2.54 565.96 4.9 568.24 8.88 568.24ZM24.7417 557.08C23.2817 557.08 22.0217 557.58 21.1817 558.5V557.24H18.2017V568H21.3217V562.68C21.3217 560.7 22.4017 559.78 23.9017 559.78C25.2817 559.78 26.0817 560.58 26.0817 562.32V568H29.2017V561.84C29.2017 558.56 27.2817 557.08 24.7417 557.08ZM33.5898 555.74C34.7498 555.74 35.5298 554.98 35.5298 553.94C35.5298 552.98 34.7498 552.26 33.5898 552.26C32.4298 552.26 31.6498 553.02 31.6498 554C31.6498 554.98 32.4298 555.74 33.5898 555.74ZM32.0298 568H35.1498V557.24H32.0298V568ZM45.7255 557.24L42.6455 564.56L39.6655 557.24H36.4455L40.9655 568H44.1855L48.7255 557.24H45.7255ZM60.2456 562.66C60.2456 559.2 57.8056 557.08 54.6456 557.08C51.3656 557.08 48.9056 559.4 48.9056 562.62C48.9056 565.82 51.3256 568.16 55.0456 568.16C56.9856 568.16 58.4856 567.56 59.4856 566.42L57.8256 564.62C57.0856 565.32 56.2656 565.66 55.1256 565.66C53.4856 565.66 52.3456 564.84 52.0456 563.5H60.1856C60.2056 563.24 60.2456 562.9 60.2456 562.66ZM54.6656 559.44C56.0656 559.44 57.0856 560.32 57.3056 561.68H52.0056C52.2256 560.3 53.2456 559.44 54.6656 559.44ZM65.3028 558.66V557.24H62.3228V568H65.4428V562.92C65.4428 560.86 66.5828 559.92 68.3028 559.92C68.5428 559.92 68.7428 559.94 69.0028 559.96V557.08C67.3428 557.08 66.0628 557.62 65.3028 558.66ZM74.517 568.16C77.737 568.16 79.597 566.74 79.597 564.74C79.597 560.5 73.097 562.28 73.097 560.44C73.097 559.88 73.697 559.44 75.097 559.44C76.077 559.44 77.137 559.64 78.197 560.24L79.237 558.02C78.217 557.42 76.577 557.08 75.097 557.08C71.957 557.08 70.117 558.52 70.117 560.56C70.117 564.86 76.617 563.06 76.617 564.82C76.617 565.42 76.077 565.8 74.637 565.8C73.317 565.8 71.857 565.38 70.897 564.76L69.857 567C70.857 567.66 72.697 568.16 74.517 568.16ZM83.082 555.74C84.242 555.74 85.022 554.98 85.022 553.94C85.022 552.98 84.242 552.26 83.082 552.26C81.922 552.26 81.142 553.02 81.142 554C81.142 554.98 81.922 555.74 83.082 555.74ZM81.522 568H84.642V557.24H81.522V568ZM93.6377 565.28C93.2977 565.54 92.8377 565.68 92.3777 565.68C91.5377 565.68 91.0377 565.18 91.0377 564.26V559.88H93.7177V557.48H91.0377V554.86H87.9177V557.48H86.2577V559.88H87.9177V564.3C87.9177 566.86 89.3977 568.16 91.9377 568.16C92.8977 568.16 93.8377 567.94 94.4777 567.48L93.6377 565.28ZM100.569 557.08C98.8491 557.08 97.1091 557.54 95.9291 558.38L97.0491 560.56C97.8291 559.94 99.0091 559.56 100.149 559.56C101.829 559.56 102.629 560.34 102.629 561.68H100.149C96.8691 561.68 95.5291 563 95.5291 564.9C95.5291 566.76 97.0291 568.16 99.5491 568.16C101.129 568.16 102.249 567.64 102.829 566.66V568H105.749V561.86C105.749 558.6 103.849 557.08 100.569 557.08ZM100.329 566.06C99.2291 566.06 98.5691 565.54 98.5691 564.76C98.5691 564.04 99.0291 563.5 100.489 563.5H102.629V564.6C102.269 565.58 101.369 566.06 100.329 566.06ZM112.193 568.16C115.413 568.16 117.273 566.74 117.273 564.74C117.273 560.5 110.773 562.28 110.773 560.44C110.773 559.88 111.373 559.44 112.773 559.44C113.753 559.44 114.813 559.64 115.873 560.24L116.913 558.02C115.893 557.42 114.253 557.08 112.773 557.08C109.633 557.08 107.793 558.52 107.793 560.56C107.793 564.86 114.293 563.06 114.293 564.82C114.293 565.42 113.753 565.8 112.313 565.8C110.993 565.8 109.533 565.38 108.573 564.76L107.533 567C108.533 567.66 110.373 568.16 112.193 568.16ZM2.66 592H5.9V578H2.66V592ZM15.5425 581.08C14.0825 581.08 12.8225 581.58 11.9825 582.5V581.24H9.0025V592H12.1225V586.68C12.1225 584.7 13.2025 583.78 14.7025 583.78C16.0825 583.78 16.8825 584.58 16.8825 586.32V592H20.0025V585.84C20.0025 582.56 18.0825 581.08 15.5425 581.08ZM30.7878 577.16V582.38C30.0078 581.5 28.8878 581.08 27.5678 581.08C24.5278 581.08 22.1878 583.24 22.1878 586.62C22.1878 590 24.5278 592.16 27.5678 592.16C29.0078 592.16 30.1478 591.7 30.9278 590.76V592H33.9078V577.16H30.7878ZM28.1078 589.6C26.5478 589.6 25.3478 588.48 25.3478 586.62C25.3478 584.76 26.5478 583.64 28.1078 583.64C29.6478 583.64 30.8478 584.76 30.8478 586.62C30.8478 588.48 29.6478 589.6 28.1078 589.6ZM41.9155 592.16C45.3355 592.16 47.8155 589.86 47.8155 586.62C47.8155 583.38 45.3355 581.08 41.9155 581.08C38.4955 581.08 35.9955 583.38 35.9955 586.62C35.9955 589.86 38.4955 592.16 41.9155 592.16ZM41.9155 589.6C40.3555 589.6 39.1555 588.48 39.1555 586.62C39.1555 584.76 40.3555 583.64 41.9155 583.64C43.4755 583.64 44.6555 584.76 44.6555 586.62C44.6555 588.48 43.4755 589.6 41.9155 589.6ZM56.4409 581.08C54.9809 581.08 53.7209 581.58 52.8809 582.5V581.24H49.9009V592H53.0209V586.68C53.0209 584.7 54.1009 583.78 55.6009 583.78C56.9809 583.78 57.7809 584.58 57.7809 586.32V592H60.9009V585.84C60.9009 582.56 58.9809 581.08 56.4409 581.08ZM74.3863 586.66C74.3863 583.2 71.9463 581.08 68.7863 581.08C65.5063 581.08 63.0463 583.4 63.0463 586.62C63.0463 589.82 65.4663 592.16 69.1863 592.16C71.1263 592.16 72.6263 591.56 73.6263 590.42L71.9663 588.62C71.2263 589.32 70.4063 589.66 69.2663 589.66C67.6263 589.66 66.4863 588.84 66.1863 587.5H74.3263C74.3463 587.24 74.3863 586.9 74.3863 586.66ZM68.8063 583.44C70.2063 583.44 71.2263 584.32 71.4463 585.68H66.1463C66.3663 584.3 67.3863 583.44 68.8063 583.44ZM80.0834 592.16C83.3034 592.16 85.1634 590.74 85.1634 588.74C85.1634 584.5 78.6634 586.28 78.6634 584.44C78.6634 583.88 79.2634 583.44 80.6634 583.44C81.6434 583.44 82.7034 583.64 83.7634 584.24L84.8034 582.02C83.7834 581.42 82.1434 581.08 80.6634 581.08C77.5234 581.08 75.6834 582.52 75.6834 584.56C75.6834 588.86 82.1834 587.06 82.1834 588.82C82.1834 589.42 81.6434 589.8 80.2034 589.8C78.8834 589.8 77.4234 589.38 76.4634 588.76L75.4234 591C76.4234 591.66 78.2634 592.16 80.0834 592.16ZM88.6484 579.74C89.8084 579.74 90.5884 578.98 90.5884 577.94C90.5884 576.98 89.8084 576.26 88.6484 576.26C87.4884 576.26 86.7084 577.02 86.7084 578C86.7084 578.98 87.4884 579.74 88.6484 579.74ZM87.0884 592H90.2084V581.24H87.0884V592ZM97.4441 581.08C95.7241 581.08 93.9841 581.54 92.8041 582.38L93.9241 584.56C94.7041 583.94 95.8841 583.56 97.0241 583.56C98.7041 583.56 99.5041 584.34 99.5041 585.68H97.0241C93.7441 585.68 92.4041 587 92.4041 588.9C92.4041 590.76 93.9041 592.16 96.4241 592.16C98.0041 592.16 99.1241 591.64 99.7041 590.66V592H102.624V585.86C102.624 582.6 100.724 581.08 97.4441 581.08ZM97.2041 590.06C96.1041 590.06 95.4441 589.54 95.4441 588.76C95.4441 588.04 95.9041 587.5 97.3641 587.5H99.5041V588.6C99.1441 589.58 98.2441 590.06 97.2041 590.06Z" fill="black"/>
<path d="M186.62 573.26L190.9 569.14C192.8 567.32 193.2 566.1 193.2 564.74C193.2 562.34 191.32 560.84 188.4 560.84C186.22 560.84 184.36 561.62 183.28 562.96L184.64 564.14C185.5 563.1 186.72 562.62 188.22 562.62C190.18 562.62 191.2 563.5 191.2 564.94C191.2 565.82 190.92 566.7 189.44 568.14L183.74 573.64V575H193.8V573.26H186.62ZM201.106 575.16C204.366 575.16 206.806 572.56 206.806 568C206.806 563.44 204.366 560.84 201.106 560.84C197.826 560.84 195.386 563.44 195.386 568C195.386 572.56 197.826 575.16 201.106 575.16ZM201.106 573.38C198.906 573.38 197.386 571.58 197.386 568C197.386 564.42 198.906 562.62 201.106 562.62C203.286 562.62 204.806 564.42 204.806 568C204.806 571.58 203.286 573.38 201.106 573.38ZM207.867 561V562.74H211.027V575H213.007V561H207.867ZM220.609 560.84C217.829 560.84 215.669 562.56 215.669 565.26C215.669 567.84 217.669 569.5 220.449 569.5C222.189 569.5 223.669 568.88 224.489 567.66V568.16C224.489 571.66 222.689 573.44 219.849 573.44C218.829 573.44 217.889 573.26 217.149 572.78L216.389 574.34C217.289 574.9 218.549 575.16 219.869 575.16C223.789 575.16 226.489 572.6 226.489 567.82C226.489 563.36 224.369 560.84 220.609 560.84ZM220.789 567.88C218.829 567.88 217.609 566.82 217.609 565.18C217.609 563.52 218.869 562.46 220.689 562.46C222.869 562.46 224.029 563.72 224.029 565.16C224.029 566.7 222.709 567.88 220.789 567.88Z" fill="#4A4A4A"/>
</svg>
